Clean-up Database
…
TODO: Evaluate these tables and decide what to do with them, i.e. rename or drop.

2 Base Tables

Code

tbls_base <- d_tbls |> 
  filter(subset == "base") |> 
  pull(table)
tibble(
  table = tbls_base)

# A tibble: 59 × 1
   table              
   <chr>              
 1 aoi_fed_sanctuaries
 2 core_stations      
 3 cruises            
 4 ctd_bottles        
 5 ctd_cast_bottles   
 6 ctd_casts          
 7 ctd_dic            
 8 ctd_profiles       
 9 dataset_keywords   
10 dataset_methods    
# ℹ 49 more rows
…
