Join Larval and Bottle Data
…
3.1 Get all temperature data records

larvae_csv     <- here("data/para_larvae.csv")
tdegc_data_csv <- here("data/para_larvae_TdegC_data.csv")
tdegc_smry_csv <- here("data/para_larvae_TdegC_summary.csv")

redo <- F
d_l <- read_csv(larvae_csv)

New names:
• `` -> `...1`

d_l

# A tibble: 10,728 × 20
    ...1  year cruise    OO  line station ship_code order_occupied net_type
   <dbl> <dbl>  <dbl> <dbl> <dbl>   <dbl> <chr>              <dbl> <chr>   
 1     1  1951 195106    NA  93.3      30 YE                     1 C1      
 2     2  1951 195106    NA 123.       40 HO                     1 C1      
 3     3  1951 195106    NA  86.7      35 YE                     2 C1      
 4     4  1951 195106    NA 123.       50 HO                     2 C1      
 5     5  1951 195106    NA  86.7      40 YE                     3 C1      
 6     6  1951 195106    NA 133.       30 CR                     1 C1      
 7     7  1951 195106    NA 123.       60 HO                     3 C1      
 8     8  1951 195106    NA  83.3      55 YE                     4 C1      
 9     9  1951 195106    NA 133.       40 CR                     2 C1      
10    10  1951 195106    NA 127.       60 HO                     4 C1      
# … with 10,718 more rows, and 11 more variables: tow_number <dbl>,
#   latitude <dbl>, longitude <dbl>, time <dttm>, stlarv <dbl>, key <chr>,
#   region <chr>, BSB <dbl>, KB <dbl>, SSB <dbl>, DBSta_ID <chr>
…
Result:

para_larvae_TdegC_data.csv

3.2 Summarize temperature data

D <- read_csv(tdegc_data_csv)
nrow(D) # 55,730 # 50,865

[1] 55730

D

# A tibble: 55,730 × 12
   rowid starttime             lon   lat t_degc datetime            longitude
   <dbl> <dttm>              <dbl> <dbl>  <dbl> <dttm>                  <dbl>
 1     1 1951-05-30 22:46:00 -118.  32.8   16.1 1951-05-30 22:12:00     -118.
 2     1 1951-05-30 22:46:00 -118.  32.8   15.3 1951-05-30 22:12:00     -118.
 3     1 1951-05-30 22:46:00 -118.  32.8   14.5 1951-05-30 22:12:00     -118.
 4     1 1951-05-30 22:46:00 -118.  32.8   13.0 1951-05-30 22:12:00     -118.
 5     2 1951-05-31 04:55:00 -115.  27.3   16.6 1951-05-31 04:18:00     -115.
 6     2 1951-05-31 04:55:00 -115.  27.3   16.5 1951-05-31 04:18:00     -115.
 7     2 1951-05-31 04:55:00 -115.  27.3   16.3 1951-05-31 04:18:00     -115.
 8     2 1951-05-31 04:55:00 -115.  27.3   16.1 1951-05-31 04:18:00     -115.
 9     2 1951-05-31 04:55:00 -115.  27.3   15.2 1951-05-31 04:18:00     -115.
10     2 1951-05-31 04:55:00 -115.  27.3   14.8 1951-05-31 04:18:00     -115.
# … with 55,720 more rows, and 5 more variables: latitude <dbl>, depthm <dbl>,
#   diff_kms <dbl>, diff_hrs <dbl>, nrow <dbl>
…
  write_csv(d, tdegc_smry_csv) # 0.4 MB
}
d <- read_csv(tdegc_smry_csv)
nrow(d) # 5,891

[1] 6150

d

# A tibble: 6,150 × 8
   starttime             lon   lat data  temp_nrow temp_avg_deptheq0
   <dttm>              <dbl> <dbl> <lgl>     <dbl>             <dbl>
 1 1951-05-30 22:46:00 -118.  32.8 NA            4              NA  
 2 1951-05-31 04:55:00 -115.  27.3 NA            8              NA  
 3 1951-05-31 09:31:00 -115.  26.9 NA            5              NA  
 4 1951-05-31 15:19:00 -113.  25.9 NA            5              15.7
 5 1951-05-31 15:36:00 -116.  26.6 NA            4              NA  
 6 1951-05-31 20:56:00 -120.  33.7 NA            5              NA  
 7 1951-05-31 21:16:00 -114.  25.6 NA            6              17.5
 8 1951-05-31 21:56:00 -116.  26.1 NA            1              NA  
 9 1951-06-01 02:44:00 -114.  25.2 NA            6              16.6
10 1951-06-01 04:11:00 -115.  26.4 NA            4              NA  
# … with 6,140 more rows, and 2 more variables: temp_avg_depthlteq20 <dbl>,
#   temp_avg_depthlteq60 <dbl>
…
