Clean-up Database
…
TODO: Evaluate these tables and decide what to do with them, i.e. rename or drop.

2 Base Tables

Code

tbls_base <- d_tbls |> 
  filter(subset == "base") |> 
  pull(table) %>% 
  c(., "species_codes_new") |> 
  sort()
tibble(
  table = tbls_base)

# A tibble: 69 × 1
   table              
   <chr>              
 1 aoi_fed_sanctuaries
 2 core_stations      
 3 cruises            
 4 cruises_uuids      
 5 ctd_bottles        
 6 ctd_cast_bottles   
 7 ctd_casts          
 8 ctd_dic            
 9 ctd_profiles       
10 dataset_keywords   
# ℹ 59 more rows
…
