Ingest Spatial Boundaries
…
dir_create(dir_pmtiles)
dir_create(dir_parquet)

# archive source spatial files to GCS
sync_to_gcs(
  local_dir  = dir_spatial,
  gcs_prefix = "archive/_spatial",
  bucket     = gcs_bucket,
  exclude    = c(".DS_Store", "*.tmp"))

# A tibble: 263 × 4
   file                                                      action  size reason
   <chr>                                                     <chr>  <dbl> <chr> 
 1 BOEM_WindPlanningAreas/BOEMWindLayers_4Download.gdb/a000… uploa… 16728 new f…
 2 BOEM_WindPlanningAreas/BOEMWindLayers_4Download.gdb/a000… uploa…   110 new f…
 3 BOEM_WindPlanningAreas/BOEMWindLayers_4Download.gdb/a000… uploa…  1849 new f…
 4 BOEM_WindPlanningAreas/BOEMWindLayers_4Download.gdb/a000… uploa…  5152 new f…
 5 BOEM_WindPlanningAreas/BOEMWindLayers_4Download.gdb/a000… uploa… 16406 new f…
 6 BOEM_WindPlanningAreas/BOEMWindLayers_4Download.gdb/a000… uploa…  2055 new f…
 7 BOEM_WindPlanningAreas/BOEMWindLayers_4Download.gdb/a000… uploa…  5152 new f…
 8 BOEM_WindPlanningAreas/BOEMWindLayers_4Download.gdb/a000… uploa…    42 new f…
 9 BOEM_WindPlanningAreas/BOEMWindLayers_4Download.gdb/a000… uploa…  1523 new f…
10 BOEM_WindPlanningAreas/BOEMWindLayers_4Download.gdb/a000… uploa…  5152 new f…
# ℹ 253 more rows
…
