Ingest CCE-LTER ZooScan PRPOOS
…
The cruise code is YYYYMM + a 2-letter ship code (e.g. 200507NH = Jul 2005, R/V New Horizon). We parse year/month/ship_key from it, build site_key from line + station, and a sample_key per station tow.

Code

zs_dir <- path_expand(glue("{dir_data}/cce-lter/ZooScan"))

# archive source (consolidated + per-taxon extracts) to GCS for provenance
sync_to_gcs(
  local_dir  = zs_dir,
  gcs_prefix = glue("archive/{provider}/{dataset}"),
  bucket     = "calcofi-files-public",
  exclude    = c(".DS_Store", "*.tmp", "*.gdoc"))

# A tibble: 49 × 4
   file                                     action     size reason  
   <chr>                                    <chr>     <dbl> <chr>   
 1 by_taxon/_manifest.csv                   uploaded   1632 new file
 2 by_taxon/_PROVENANCE.md                  uploaded   1909 new file
 3 by_taxon/appendicularia__basic.csv       uploaded 135968 new file
 4 by_taxon/appendicularia__extra.csv       uploaded 130227 new file
 5 by_taxon/bryozoan_larvae__basic.csv      uploaded 131162 new file
 6 by_taxon/bryozoan_larvae__extra.csv      uploaded 128057 new file
 7 by_taxon/chaetognatha__basic.csv         uploaded 136459 new file
 8 by_taxon/chaetognatha__extra.csv         uploaded 131599 new file
 9 by_taxon/cnidaria_ctenophores__basic.csv uploaded 135265 new file
10 by_taxon/cnidaria_ctenophores__extra.csv uploaded 131408 new file
# ℹ 39 more rows
…
