Ingest CCE-LTER ZooDB Holoplankton
…
Code

zoo_dir <- path_expand(glue("{dir_data}/cce-lter/ZooDB"))
zoo_csv <- path(zoo_dir, "zoodb_holoplankton.csv")
stopifnot("zoodb_holoplankton.csv not found" = file_exists(zoo_csv))

# archive source (consolidated + per-taxon exports + portal method PDFs) to GCS
sync_to_gcs(
  local_dir  = zoo_dir,
  gcs_prefix = glue("archive/{provider}/{dataset}"),
  bucket     = "calcofi-files-public",
  exclude    = c(".DS_Store", "*.tmp", "*.gdoc"))

# A tibble: 81 × 4
   file                                      action   size reason        
   <chr>                                     <chr>   <dbl> <chr>         
 1 by_taxon/_all_taxa__1000m3.csv            skipped 44108 checksum match
 2 by_taxon/_all_taxa__m2.csv                skipped 43502 checksum match
 3 by_taxon/_manifest.csv                    skipped  5867 checksum match
 4 by_taxon/_PROVENANCE.md                   skipped  2393 checksum match
 5 by_taxon/amphipoda_gammaridea__1000m3.csv skipped 41943 checksum match
 6 by_taxon/amphipoda_gammaridea__m2.csv     skipped 41572 checksum match
 7 by_taxon/amphipoda_hyperiidea__1000m3.csv skipped 42494 checksum match
 8 by_taxon/amphipoda_hyperiidea__m2.csv     skipped 41898 checksum match
 9 by_taxon/appendicularia__1000m3.csv       skipped 42757 checksum match
10 by_taxon/appendicularia__m2.csv           skipped 42170 checksum match
# ℹ 71 more rows
…
