Publish Larvae to OBIS
…
cat("\nDarwin Core Archive created:", zip_file, "\n")

Darwin Core Archive created: /Users/bbest/Github/CalCOFI/workflows/data/darwincore/larvae/../larvae_2025-11-11.zip 

16 Check CSV

Code

d_event      <- read_csv(file.path(dir_out, "event.csv"))
d_occurrence <- read_csv(file.path(dir_out, "occurrence.csv"))
d_emof       <- read_csv(file.path(dir_out, "extendedMeasurementOrFact.csv"))

d_event

# A tibble: 210,536 × 17
   eventID             eventType eventDate samplingProtocol eventRemarks habitat
   <chr>               <chr>     <chr>     <chr>            <chr>        <chr>  
 1 26a5e398-02eb-ef11… cruise    1998-06-… Marine plankton… Cruise on R… marine 
 2 29a3e398-02eb-ef11… cruise    1951-08-… Marine plankton… Cruise on C… marine 
 3 66a3e398-02eb-ef11… cruise    1953-06-… Marine plankton… Cruise on P… marine 
 4 60a4e398-02eb-ef11… cruise    1969-02-… Marine plankton… Cruise on A… marine 
 5 5ca3e398-02eb-ef11… cruise    1953-04-… Marine plankton… Cruise on H… marine 
 6 6aa3e398-02eb-ef11… cruise    1953-08-… Marine plankton… Cruise on C… marine 
 7 f1a3e398-02eb-ef11… cruise    1959-01-… Marine plankton… Cruise on S… marine 
 8 63a3e398-02eb-ef11… cruise    1953-06-… Marine plankton… Cruise on C… marine 
 9 05a4e398-02eb-ef11… cruise    1959-08-… Marine plankton… Cruise on B… marine 
10 61a4e398-02eb-ef11… cruise    1969-02-… Marine plankton… Cruise on D… marine 
# ℹ 210,526 more rows
# ℹ 11 more variables: parentEventID <chr>, sampleSizeValue <dbl>,
#   sampleSizeUnit <chr>, decimalLatitude <dbl>, decimalLongitude <dbl>,
#   locationID <chr>, geodeticDatum <chr>, coordinateUncertaintyInMeters <dbl>,
#   countryCode <chr>, waterBody <chr>, datasetID <chr>

Code

d_occurrence

# A tibble: 463,655 × 12
   occurrenceID eventID scientificName scientificNameID kingdom occurrenceStatus
   <chr>        <chr>   <chr>          <chr>            <chr>   <chr>           
 1 320f76e6-cf… eb8733… Teleostei      urn:lsid:marine… Animal… present         
 2 d34ab1a4-94… eb8733… Merluccius pr… urn:lsid:marine… Animal… present         
 3 5102c9a8-45… ec8733… Teleostei      urn:lsid:marine… Animal… present         
 4 c7cafab4-19… ef8733… Teleostei      urn:lsid:marine… Animal… present         
 5 f973a95d-02… f38733… Teleostei      urn:lsid:marine… Animal… present         
 6 cae6b4e2-4a… f48733… Teleostei      urn:lsid:marine… Animal… present         
 7 71244590-52… f58733… Teleostei      urn:lsid:marine… Animal… present         
 8 9f7b49f4-ea… f78733… Teleostei      urn:lsid:marine… Animal… present         
 9 c52c0e7f-7d… f98733… Teleostei      urn:lsid:marine… Animal… present         
10 4016e579-3c… fb8733… Teleostei      urn:lsid:marine… Animal… present         
# ℹ 463,645 more rows
# ℹ 6 more variables: organismQuantity <dbl>, organismQuantityType <chr>,
#   lifeStage <chr>, preparations <chr>, basisOfRecord <chr>, modified <date>

Code

d_emof

# A tibble: 610,816 × 11
   eventID          occurrenceID measurementID measurementType measurementTypeID
   <chr>            <chr>        <chr>         <chr>           <lgl>            
 1 b23147f2-02eb-e… <NA>         590c000f-12b… standardized h… NA               
 2 b23147f2-02eb-e… <NA>         48e93866-e73… proportion of … NA               
 3 b23147f2-02eb-e… <NA>         d2351970-896… small plankton… NA               
 4 b23147f2-02eb-e… <NA>         0e53d969-d81… total plankton… NA               
 5 35303af2-02eb-e… <NA>         5b9aa52e-7d2… standardized h… NA               
 6 35303af2-02eb-e… <NA>         e182fa63-73a… proportion of … NA               
 7 db8440f2-02eb-e… <NA>         7800ad75-53c… standardized h… NA               
 8 db8440f2-02eb-e… <NA>         e73cafa0-399… proportion of … NA               
 9 db8440f2-02eb-e… <NA>         ebbf3924-405… small plankton… NA               
10 db8440f2-02eb-e… <NA>         afb1184b-1de… total plankton… NA               
# ℹ 610,806 more rows
# ℹ 6 more variables: measurementValue <dbl>, measurementUnit <chr>,
#   measurementUnitID <chr>, measurementMethod <chr>, measurementRemarks <chr>,
#   measurementValueID <lgl>
…
