Publish Ichthyoplankton & Bottle Data to OBIS
…
=== Event hierarchy check ===

Code

event_check <- check_eventids(d_event_check)
if (nrow(event_check) == 0) {
  cat("PASS: all event parent-child relationships valid\n")
} else {
  cat("ISSUES found:\n")
  print(event_check)
}

ISSUES found:
# A tibble: 8,393 × 4
   field         level   row message                                          
   <chr>         <chr> <int> <chr>                                            
 1 parentEventID error 77200 parentEventID 4903CR has no corresponding eventID
 2 parentEventID error 77201 parentEventID 4903CR has no corresponding eventID
 3 parentEventID error 77202 parentEventID 4903CR has no corresponding eventID
 4 parentEventID error 77203 parentEventID 4903CR has no corresponding eventID
 5 parentEventID error 77204 parentEventID 4903CR has no corresponding eventID
 6 parentEventID error 77205 parentEventID 4903CR has no corresponding eventID
 7 parentEventID error 77206 parentEventID 4903CR has no corresponding eventID
 8 parentEventID error 77207 parentEventID 4903CR has no corresponding eventID
 9 parentEventID error 77208 parentEventID 4903CR has no corresponding eventID
10 parentEventID error 77209 parentEventID 4903CR has no corresponding eventID
# ℹ 8,383 more rows
…
