…
cc_describe_table("ctd_measurement")                                         
# Using cached database: v2026.03.14                                             
# # A tibble: 7 × 3                                                              
#   column_name          data_type is_nullable                                   
#   <chr>                <chr>     <chr>                                         
# 1 ctd_measurement_uuid VARCHAR   YES                                           
# 2 ctd_cast_uuid        VARCHAR   YES                                           
# 3 depth_m              DOUBLE    YES                                           
# 4 measurement_type     VARCHAR   YES                                           
# 5 measurement_value    DOUBLE    YES                                           
# 6 measurement_qual     VARCHAR   YES                                           
# 7 cruise_key           VARCHAR   YES                                           
tbl(con, "measurement_type") |> filter(`_source_table` == "ctd_raw") |>      
collect()                                                                      
# A tibble: 53 × 8                                                             
#    measurement_type        description                   units                 
# `_source_column` `_source_table` `_source_datasets` `_qual_column`             
# `_prec_column`                                                                 
#    <chr>                   <chr>                         <chr> <chr>           
#   <chr>           <chr>              <chr>          <chr>                      
#  1 temperature_1           Temperature sensor 1          degC  temp1           
#   ctd_raw         calcofi_ctd-cast   temp1q         NA                         
#  2 temperature_2           Temperature sensor 2          degC  temp2           
#   ctd_raw         calcofi_ctd-cast   temp2q         NA                         
#  3 temperature_ave         Average temperature           degC  temp_ave        
#   ctd_raw         calcofi_ctd-cast   NA             NA                         
#  4 potential_temperature_1 Potential temperature sensor… degC  po_t1           
#   ctd_raw         calcofi_ctd-cast   NA             NA                         
#  5 potential_temperature_2 Potential temperature sensor… degC  po_t2           
#   ctd_raw         calcofi_ctd-cast   NA             NA                         
#  6 salinity_1              Salinity sensor 1             PSU   salt1           
#   ctd_raw         calcofi_ctd-cast   salt1q         NA                         
#  7 salinity_1_corr         Salinity sensor 1 cruise-cor… PSU   salt1_corr      
#   ctd_raw         calcofi_ctd-cast   NA             NA                         
#  8 salinity_2              Salinity sensor 2             PSU   salt2           
#   ctd_raw         calcofi_ctd-cast   salt2q         NA                         
#  9 salinity_2_corr         Salinity sensor 2 cruise-cor… PSU   salt2_corr      
#   ctd_raw         calcofi_ctd-cast   NA             NA                         
# 10 salinity_ave_corr       Average salinity corrected    PSU   salt_ave_corr   
#   ctd_raw         calcofi_ctd-cast   NA             NA                         
# ℹ 43 more rows                                                               
# ℹ Use `print(n = ...)` to see more rows                                      
…
Using cached database: v2026.03.14                                             
# A tibble: 7 × 3                                                              
  column_name          data_type is_nullable                                   
  <chr>                <chr>     <chr>                                         
1 ctd_measurement_uuid VARCHAR   YES                                           
2 ctd_cast_uuid        VARCHAR   YES                                           
3 depth_m              DOUBLE    YES                                           
4 measurement_type     VARCHAR   YES                                           
5 measurement_value    DOUBLE    YES                                           
6 measurement_qual     VARCHAR   YES                                           
7 cruise_key           VARCHAR   YES                                           
>                                                                              
> tbl(con, "measurement_type") |> filter(`_source_table` == "ctd_raw") |>      
collect()                                                                      
# A tibble: 53 × 8                                                             
   measurement_type        description                   units                 
`_source_column` `_source_table` `_source_datasets` `_qual_column`             
`_prec_column`                                                                 
   <chr>                   <chr>                         <chr> <chr>           
  <chr>           <chr>              <chr>          <chr>                      
 1 temperature_1           Temperature sensor 1          degC  temp1           
  ctd_raw         calcofi_ctd-cast   temp1q         NA                         
 2 temperature_2           Temperature sensor 2          degC  temp2           
  ctd_raw         calcofi_ctd-cast   temp2q         NA                         
 3 temperature_ave         Average temperature           degC  temp_ave        
  ctd_raw         calcofi_ctd-cast   NA             NA                         
 4 potential_temperature_1 Potential temperature sensor… degC  po_t1           
  ctd_raw         calcofi_ctd-cast   NA             NA                         
 5 potential_temperature_2 Potential temperature sensor… degC  po_t2           
  ctd_raw         calcofi_ctd-cast   NA             NA                         
 6 salinity_1              Salinity sensor 1             PSU   salt1           
  ctd_raw         calcofi_ctd-cast   salt1q         NA                         
 7 salinity_1_corr         Salinity sensor 1 cruise-cor… PSU   salt1_corr      
  ctd_raw         calcofi_ctd-cast   NA             NA                         
 8 salinity_2              Salinity sensor 2             PSU   salt2           
  ctd_raw         calcofi_ctd-cast   salt2q         NA                         
 9 salinity_2_corr         Salinity sensor 2 cruise-cor… PSU   salt2_corr      
  ctd_raw         calcofi_ctd-cast   NA             NA                         
10 salinity_ave_corr       Average salinity corrected    PSU   salt_ave_corr   
  ctd_raw         calcofi_ctd-cast   NA             NA                         
# ℹ 43 more rows                                                               
# ℹ Use `print(n = ...)` to see more rows                                      
…
